{
  "header" : {
    "id" : "CUST.PASSPORT.NO",
    "dsfApiType" : "LOCAL.TABLE",
    "dsfApiComponent" : "t24data",
    "metadata" : {
      "installed" : "NO",
      "release" : "R21"
    },
    "ttag" : {
      "t24" : { }
    }
  },
  "body" : {
    "SHORT.NAME" : [ {
      "SHORT.NAME" : "CUS.PASSPORT.NO"
    } ],
    "DESCRIPTION" : [ {
      "DESCRIPTION" : "Customer Passport Number"
    } ],
    "FEATURE.NAME" : "FNDINV",
    "CHAR.TYPE" : "A",
    "MAXIMUM.CHAR" : "35"
  }
}